.______       _______   ______   ______   .___  ___. .___  ___.  _______ .__   __.  _______       ___   .___________. __    ______   .__   __.           _______. _______ .______     ____    ____  __    ______  _______ 
|   _  \     |   ____| /      | /  __  \  |   \/   | |   \/   | |   ____||  \ |  | |       \     /   \  |           ||  |  /  __  \  |  \ |  |          /       ||   ____||   _  \    \   \  /   / |  |  /      ||   ____|
|  |_)  |    |  |__   |  ,----'|  |  |  | |  \  /  | |  \  /  | |  |__   |   \|  | |  .--.  |   /  ^  \ `---|  |----`|  | |  |  |  | |   \|  |  ______ |   (----`|  |__   |  |_)  |    \   \/   /  |  | |  ,----'|  |__   
|      /     |   __|  |  |     |  |  |  | |  |\/|  | |  |\/|  | |   __|  |  . `  | |  |  |  |  /  /_\  \    |  |     |  | |  |  |  | |  . `  | |______| \   \    |   __|  |      /      \      /   |  | |  |     |   __|  
|  |\  \----.|  |____ |  `----.|  `--'  | |  |  |  | |  |  |  | |  |____ |  |\   | |  '--'  | /  _____  \   |  |     |  | |  `--'  | |  |\   |      .----)   |   |  |____ |  |\  \----.  \    /    |  | |  `----.|  |____ 
| _| `._____||_______| \______| \______/  |__|  |__| |__|  |__| |_______||__| \__| |_______/ /__/     \__\  |__|     |__|  \______/  |__| \__|      |_______/    |_______|| _| `._____|   \__/     |__|  \______||_______|
                                                                                                                                                                                                                          